{
  "success": true,
  "data": [
    {
      "id": "d0a9bac3-fd25-4931-9f9a-23909de9bac7",
      "invoiceId": "2f5f61c4-ea46-47f5-a147-686bfa9f6f39",
      "claimNumber": "CLM-MJWLIO9A3",
      "insuranceProvider": "Cigna",
      "insurancePayerId": null,
      "policyNumber": "POL100003",
      "claimAmount": "1199",
      "approvedAmount": null,
      "status": "SUBMITTED",
      "submittedAt": "2026-01-02T08:12:15.311Z",
      "processedAt": null,
      "denialReasonCode": null,
      "appealNotes": null,
      "appealDate": null,
      "appealStatus": null,
      "notes": null,
      "createdBy": "4fcfc0a4-38ae-4f9b-83a2-f4520b96bbbe",
      "updatedBy": null,
      "submittedBy": null,
      "processedBy": null,
      "originalClaimId": null,
      "resubmissionCode": null,
      "appealDocumentUrl": null,
      "eclaimLinkId": null,
      "eclaimLinkStatus": null,
      "eclaimLinkResponse": null,
      "isPrimary": true,
      "linkedClaimId": null,
      "createdAt": "2026-01-02T08:12:15.311Z",
      "updatedAt": "2026-01-02T08:12:15.311Z",
      "invoice": {
        "id": "2f5f61c4-ea46-47f5-a147-686bfa9f6f39",
        "hospitalId": "a2a67081-2b5d-41ec-88aa-c75c96476054",
        "patientId": "206866f3-1a75-4dae-8203-64a562b39b1e",
        "admissionId": null,
        "invoiceNumber": "INV-MJWLIO913",
        "invoiceDate": "2025-12-27T08:12:15.015Z",
        "dueDate": "2026-01-26T08:12:15.015Z",
        "status": "PARTIALLY_PAID",
        "subtotal": "1268",
        "discount": "126",
        "tax": "57",
        "totalAmount": "1199",
        "paidAmount": "599",
        "balanceAmount": "600",
        "insuranceTotal": null,
        "patientTotal": null,
        "copayCollected": "0",
        "primaryInsuranceId": null,
        "depositAmount": "0",
        "finalizedAt": null,
        "lastBedChargeDate": null,
        "notes": null,
        "createdBy": "4fcfc0a4-38ae-4f9b-83a2-f4520b96bbbe",
        "updatedBy": null,
        "createdAt": "2026-01-02T08:12:15.302Z",
        "updatedAt": "2026-01-02T08:12:15.302Z",
        "patient": {
          "id": "206866f3-1a75-4dae-8203-64a562b39b1e",
          "firstName": "Jennifer",
          "lastName": "Martinez",
          "mrn": "MRN-100003"
        }
      }
    }
  ],
  "pagination": {
    "page": 1,
    "limit": 1,
    "total": 4,
    "totalPages": 4,
    "hasNext": true,
    "hasPrev": false
  }
}