{"success":true,"data":[{"id":"1581e690-0353-4eb9-b8b1-566b9db1632e","hospitalId":"a2a67081-2b5d-41ec-88aa-c75c96476054","patientId":"f7fb901e-42d2-49f3-a6b5-d727b779fcb1","admissionId":null,"invoiceNumber":"INV-ML7MBQH7H9I","invoiceDate":"2026-02-04T06:00:01.486Z","dueDate":null,"status":"PENDING","subtotal":"200","discount":"0","tax":"0","totalAmount":"200","paidAmount":"0","balanceAmount":"200","insuranceTotal":null,"patientTotal":null,"copayCollected":"0","primaryInsuranceId":null,"depositAmount":"0","finalizedAt":null,"lastBedChargeDate":null,"notes":null,"createdBy":"billing-cron","updatedBy":"billing-cron","createdAt":"2026-02-04T06:00:01.486Z","updatedAt":"2026-02-04T06:00:01.602Z","patient":{"id":"f7fb901e-42d2-49f3-a6b5-d727b779fcb1","firstName":"anindya","lastName":"roy","mrn":"HMS001-MK5MZ4PN3PQ9"},"items":[{"id":"04db1cf8-4253-48e7-a6b3-1d77b312a587","invoiceId":"1581e690-0353-4eb9-b8b1-566b9db1632e","description":"Room charge - Emergency Ward - Bed ED-003 - 2026-02-04","category":"ACCOMMODATION","quantity":1,"unitPrice":"200","discount":"0","totalPrice":"200","isVatExempt":false,"vatRate":"5","vatAmount":"0","priceBeforeVat":null,"insuranceCoverage":null,"insuranceAmount":null,"patientAmount":null,"payerRuleId":null,"createdAt":"2026-02-04T06:00:01.592Z"}],"payments":[]},{"id":"eb770956-1a71-4ce5-adb3-851412561ceb","hospitalId":"a2a67081-2b5d-41ec-88aa-c75c96476054","patientId":"8d86603e-04ea-4c9e-a841-bfaf645ecfd4","admissionId":null,"invoiceNumber":"INV-ML7MBQCXY5Y","invoiceDate":"2026-02-04T06:00:01.332Z","dueDate":null,"status":"PENDING","subtotal":"200","discount":"0","tax":"0","totalAmount":"200","paidAmount":"0","balanceAmount":"200","insuranceTotal":null,"patientTotal":null,"copayCollected":"0","primaryInsuranceId":null,"depositAmount":"0","finalizedAt":null,"lastBedChargeDate":null,"notes":null,"createdBy":"billing-cron","updatedBy":"billing-cron","createdAt":"2026-02-04T06:00:01.332Z","updatedAt":"2026-02-04T06:00:01.448Z","patient":{"id":"8d86603e-04ea-4c9e-a841-bfaf645ecfd4","firstName":"Md","lastName":"Kamil","mrn":"MRN26890529"},"items":[{"id":"367d143c-5913-4c28-b7bc-5a201add8e92","invoiceId":"eb770956-1a71-4ce5-adb3-851412561ceb","description":"Room charge - Emergency Ward - Bed EMR-003 - 2026-02-04","category":"ACCOMMODATION","quantity":1,"unitPrice":"200","discount":"0","totalPrice":"200","isVatExempt":false,"vatRate":"5","vatAmount":"0","priceBeforeVat":null,"insuranceCoverage":"90","insuranceAmount":"180","patientAmount":"20","payerRuleId":null,"createdAt":"2026-02-04T06:00:01.439Z"}],"payments":[]},{"id":"c66c553f-7bb8-4a85-8601-17f27f2d08d7","hospitalId":"a2a67081-2b5d-41ec-88aa-c75c96476054","patientId":"77f603f2-b929-47c0-8e8c-63f29a2629b4","admissionId":null,"invoiceNumber":"INV-ML7MBQ5C7Z1","invoiceDate":"2026-02-04T06:00:01.057Z","dueDate":null,"status":"PENDING","subtotal":"200","discount":"0","tax":"0","totalAmount":"200","paidAmount":"0","balanceAmount":"200","insuranceTotal":null,"patientTotal":null,"copayCollected":"0","primaryInsuranceId":null,"depositAmount":"0","finalizedAt":null,"lastBedChargeDate":null,"notes":null,"createdBy":"billing-cron","updatedBy":"billing-cron","createdAt":"2026-02-04T06:00:01.057Z","updatedAt":"2026-02-04T06:00:01.092Z","patient":{"id":"77f603f2-b929-47c0-8e8c-63f29a2629b4","firstName":"virat","lastName":"kohli","mrn":"HMS001-MKXWOEUEV4I0"},"items":[{"id":"a927ad81-0469-43ba-8099-3bdb3a512bdc","invoiceId":"c66c553f-7bb8-4a85-8601-17f27f2d08d7","description":"Room charge - General Ward B - Bed GWB-001 - 2026-02-04","category":"ACCOMMODATION","quantity":1,"unitPrice":"200","discount":"0","totalPrice":"200","isVatExempt":false,"vatRate":"5","vatAmount":"0","priceBeforeVat":null,"insuranceCoverage":null,"insuranceAmount":null,"patientAmount":null,"payerRuleId":null,"createdAt":"2026-02-04T06:00:01.083Z"}],"payments":[]},{"id":"3ac1838f-2110-4af4-b8d2-a4d3d8af7939","hospitalId":"a2a67081-2b5d-41ec-88aa-c75c96476054","patientId":"4677f80b-628c-4394-ab45-f3b19318d106","admissionId":null,"invoiceNumber":"INV-ML7MBQ39SOA","invoiceDate":"2026-02-04T06:00:00.983Z","dueDate":null,"status":"PENDING","subtotal":"200","discount":"0","tax":"0","totalAmount":"200","paidAmount":"0","balanceAmount":"200","insuranceTotal":null,"patientTotal":null,"copayCollected":"0","primaryInsuranceId":null,"depositAmount":"0","finalizedAt":null,"lastBedChargeDate":null,"notes":null,"createdBy":"billing-cron","updatedBy":"billing-cron","createdAt":"2026-02-04T06:00:00.983Z","updatedAt":"2026-02-04T06:00:01.024Z","patient":{"id":"4677f80b-628c-4394-ab45-f3b19318d106","firstName":"E2E","lastName":"TestPatient","mrn":"HMS001-MKWEO76HBZ36"},"items":[{"id":"4987f67d-39d5-446c-adfe-128ac88c2bf0","invoiceId":"3ac1838f-2110-4af4-b8d2-a4d3d8af7939","description":"Room charge - Emergency Ward - Bed ED-001 - 2026-02-04","category":"ACCOMMODATION","quantity":1,"unitPrice":"200","discount":"0","totalPrice":"200","isVatExempt":false,"vatRate":"5","vatAmount":"0","priceBeforeVat":null,"insuranceCoverage":null,"insuranceAmount":null,"patientAmount":null,"payerRuleId":null,"createdAt":"2026-02-04T06:00:01.015Z"}],"payments":[]},{"id":"b850a417-4bba-4274-accc-14bfbc0e125e","hospitalId":"a2a67081-2b5d-41ec-88aa-c75c96476054","patientId":"cc0bdc2d-05cf-4dd9-accc-6a5ee8f36ffa","admissionId":null,"invoiceNumber":"INV-ML7MBPZR4AE","invoiceDate":"2026-02-04T06:00:00.857Z","dueDate":null,"status":"PENDING","subtotal":"400","discount":"0","tax":"0","totalAmount":"400","paidAmount":"0","balanceAmount":"400","insuranceTotal":null,"patientTotal":null,"copayCollected":"0","primaryInsuranceId":null,"depositAmount":"0","finalizedAt":null,"lastBedChargeDate":null,"notes":null,"createdBy":"billing-cron","updatedBy":"billing-cron","createdAt":"2026-02-04T06:00:00.857Z","updatedAt":"2026-02-04T06:00:00.956Z","patient":{"id":"cc0bdc2d-05cf-4dd9-accc-6a5ee8f36ffa","firstName":"Final","lastName":"Test","mrn":"HMS001-MKWEXTN02VD3"},"items":[{"id":"78dfe97c-155a-4b1f-8f49-bdb8b9bc8782","invoiceId":"b850a417-4bba-4274-accc-14bfbc0e125e","description":"Room charge - Emergency Ward - Bed EMR-005 - 2026-02-04","category":"ACCOMMODATION","quantity":1,"unitPrice":"200","discount":"0","totalPrice":"200","isVatExempt":false,"vatRate":"5","vatAmount":"0","priceBeforeVat":null,"insuranceCoverage":null,"insuranceAmount":null,"patientAmount":null,"payerRuleId":null,"createdAt":"2026-02-04T06:00:00.894Z"},{"id":"79f58893-a04f-4abb-a9df-897b61957415","invoiceId":"b850a417-4bba-4274-accc-14bfbc0e125e","description":"Room charge - Emergency Ward - Bed EMR-006 - 2026-02-04","category":"ACCOMMODATION","quantity":1,"unitPrice":"200","discount":"0","totalPrice":"200","isVatExempt":false,"vatRate":"5","vatAmount":"0","priceBeforeVat":null,"insuranceCoverage":null,"insuranceAmount":null,"patientAmount":null,"payerRuleId":null,"createdAt":"2026-02-04T06:00:00.950Z"}],"payments":[]}],"pagination":{"page":1,"limit":5,"total":520,"totalPages":104,"hasNext":true,"hasPrev":false}}