{"success":true,"message":"Appointments retrieved","data":{"data":[{"id":"68d6b2fd-73b3-42ca-82ef-716dccbb8f85","appointmentDate":"2026-02-05T00:00:00.000Z","date":"2026-02-05T00:00:00.000Z","startTime":"09:00","time":"09:00","endTime":"09:15","doctorId":"ae37d9ea-44c4-40d0-aeaa-a0759d837a68","doctorName":"Dr. TestNew Doctor","doctorSpecialty":"General Medicine","departmentId":"4e9a0e31-4af6-46b4-99a6-21df9625878c","departmentName":"General Medicine","type":"CONSULTATION","reason":"Regular consultation","status":"NO_SHOW","notes":null,"tokenNumber":1,"createdAt":"2026-02-04T20:36:26.858Z"},{"id":"efe51834-a27f-474d-af6f-15b3a7635ef6","appointmentDate":"2026-02-04T00:00:00.000Z","date":"2026-02-04T00:00:00.000Z","startTime":"23:20","time":"23:20","endTime":"23:40","doctorId":"5b99e802-fd50-4130-bc9f-bea5bb923d71","doctorName":"Dr. Anagha Vijay","doctorSpecialty":"Gastroenterology","departmentId":"8d938903-7efe-419f-bc2f-e2769923209f","departmentName":"Gastrology","type":"CONSULTATION","reason":"Regular consultation","status":"COMPLETED","notes":"[System: Auto-completed — appointment date passed without status update. Previous status: CHECKED_IN]","tokenNumber":4,"createdAt":"2026-02-04T19:05:27.584Z"},{"id":"863281c3-77a7-4ef2-bb37-70b0a6cdf9ef","appointmentDate":"2026-02-04T00:00:00.000Z","date":"2026-02-04T00:00:00.000Z","startTime":"19:00","time":"19:00","endTime":"20:00","doctorId":"a326353e-547a-44bc-a814-fbeb41b5d452","doctorName":"Dr. Idi Amin","doctorSpecialty":"Stroke Neurology","departmentId":"c883b05e-866a-4dbe-9156-ce6d43c6930b","departmentName":"Neurology","type":"CONSULTATION","reason":"Regular consultation","status":"COMPLETED","notes":"[System: Auto-completed — appointment date passed without status update. Previous status: CHECKED_IN]","tokenNumber":6,"createdAt":"2026-02-04T13:48:28.580Z"},{"id":"b8b6a41f-18ee-4c83-91a0-58ab30e47e0e","appointmentDate":"2026-02-04T00:00:00.000Z","date":"2026-02-04T00:00:00.000Z","startTime":"17:00","time":"17:00","endTime":"17:30","doctorId":"bf6ff9aa-7cdb-469f-8a12-a3a6f4f57337","doctorName":"Dr. Muhammad Kamil","doctorSpecialty":"General Medicine","departmentId":"cb92bd2e-4d56-4387-9326-e07ec0858e6e","departmentName":"Internal Medicine","type":"CONSULTATION","reason":"Regular consultation","status":"COMPLETED","notes":"[System: Auto-completed — appointment date passed without status update. Previous status: CHECKED_IN]","tokenNumber":2,"createdAt":"2026-02-04T12:30:38.167Z"},{"id":"4425763b-8866-409d-b9dd-619517c87d07","appointmentDate":"2026-02-04T00:00:00.000Z","date":"2026-02-04T00:00:00.000Z","startTime":"06:00","time":"06:00","endTime":"07:00","doctorId":"a326353e-547a-44bc-a814-fbeb41b5d452","doctorName":"Dr. Idi Amin","doctorSpecialty":"Stroke Neurology","departmentId":"c883b05e-866a-4dbe-9156-ce6d43c6930b","departmentName":"Neurology","type":"CONSULTATION","reason":"Regular consultation","status":"COMPLETED","notes":"[System: Auto-completed — appointment date passed without status update. Previous status: CHECKED_IN]","tokenNumber":2,"createdAt":"2026-02-04T01:42:56.590Z"},{"id":"9e7ced8c-d7ea-41b4-ab9e-ec3a7f2d1f01","appointmentDate":"2026-02-04T00:00:00.000Z","date":"2026-02-04T00:00:00.000Z","startTime":"01:59","time":"01:59","endTime":"02:59","doctorId":"a326353e-547a-44bc-a814-fbeb41b5d452","doctorName":"Dr. Idi Amin","doctorSpecialty":"Stroke Neurology","departmentId":"c883b05e-866a-4dbe-9156-ce6d43c6930b","departmentName":"Neurology","type":"CONSULTATION","reason":"UAE Insurance Test - Copay Verification","status":"NO_SHOW","notes":null,"tokenNumber":null,"createdAt":"2026-02-04T01:59:58.293Z"},{"id":"4fb645ce-8803-4bcb-bd9b-51d428d55c37","appointmentDate":"2026-02-03T00:00:00.000Z","date":"2026-02-03T00:00:00.000Z","startTime":"20:00","time":"20:00","endTime":"21:00","doctorId":"a326353e-547a-44bc-a814-fbeb41b5d452","doctorName":"Dr. Idi Amin","doctorSpecialty":"Stroke Neurology","departmentId":"c883b05e-866a-4dbe-9156-ce6d43c6930b","departmentName":"Neurology","type":"CONSULTATION","reason":"Patient portal booking","status":"COMPLETED","notes":"[System: Auto-completed — appointment date passed without status update. Previous status: CHECKED_IN]","tokenNumber":8,"createdAt":"2026-02-03T15:31:30.810Z"},{"id":"c2f5d15f-5756-44dc-8639-b8e07ba8394e","appointmentDate":"2026-02-03T00:00:00.000Z","date":"2026-02-03T00:00:00.000Z","startTime":"17:00","time":"17:00","endTime":"18:00","doctorId":"a326353e-547a-44bc-a814-fbeb41b5d452","doctorName":"Dr. Idi Amin","doctorSpecialty":"Stroke Neurology","departmentId":"c883b05e-866a-4dbe-9156-ce6d43c6930b","departmentName":"Neurology","type":"CONSULTATION","reason":"Regular consultation","status":"COMPLETED","notes":"[System: Auto-completed — appointment date passed without status update. Previous status: CHECKED_IN]","tokenNumber":2,"createdAt":"2026-02-03T12:05:25.297Z"},{"id":"b41dfcaa-a75a-4bb8-b3f9-b2a58db2ab2d","appointmentDate":"2026-02-03T00:00:00.000Z","date":"2026-02-03T00:00:00.000Z","startTime":"02:00","time":"02:00","endTime":"03:00","doctorId":"a326353e-547a-44bc-a814-fbeb41b5d452","doctorName":"Dr. Idi Amin","doctorSpecialty":"Stroke Neurology","departmentId":"c883b05e-866a-4dbe-9156-ce6d43c6930b","departmentName":"Neurology","type":"CONSULTATION","reason":"Regular consultation","status":"NO_SHOW","notes":null,"tokenNumber":1,"createdAt":"2026-02-02T20:46:44.155Z"},{"id":"3c0402b0-1828-4911-b600-2ef462690788","appointmentDate":"2026-01-29T18:00:00.000Z","date":"2026-01-29T18:00:00.000Z","startTime":"22:00","time":"22:00","endTime":"23:00","doctorId":"a326353e-547a-44bc-a814-fbeb41b5d452","doctorName":"Dr. Idi Amin","doctorSpecialty":"Stroke Neurology","departmentId":"c883b05e-866a-4dbe-9156-ce6d43c6930b","departmentName":"Neurology","type":"FOLLOW_UP","reason":"Regular consultation","status":"NO_SHOW","notes":"","tokenNumber":4,"createdAt":"2026-01-29T15:33:44.489Z"}],"pagination":{"page":1,"limit":10,"total":54,"totalPages":6}}}