{"success":true,"message":"Notifications retrieved","data":{"data":[{"id":"0fb0440d-5eb4-4946-ace4-6d513457b435","userId":"81f9de70-0194-48ca-ba6a-645399aa27e6","title":"Missed Appointment","message":"You missed your 09:00 appointment with Dr. TestNew Doctor. Please contact us to reschedule.","type":"APPOINTMENT","isRead":false,"data":{"type":"NO_SHOW","appointmentId":"68d6b2fd-73b3-42ca-82ef-716dccbb8f85"},"createdAt":"2026-02-05T09:15:00.075Z"},{"id":"ce45eab7-6c6c-4119-a694-8de63456606a","userId":"81f9de70-0194-48ca-ba6a-645399aa27e6","title":"New Invoice Generated","message":"A new invoice #INV-ML91RKX28IB has been generated for INR 0.00.","type":"SYSTEM","isRead":false,"data":{"amount":0,"invoiceId":"adab1491-1da5-4375-a42b-6a9eca24466d","billingType":"INVOICE_CREATED","invoiceNumber":"INV-ML91RKX28IB"},"createdAt":"2026-02-05T06:00:01.251Z"},{"id":"c51fa22a-0be3-4646-a66e-a24eda5d7a4b","userId":"81f9de70-0194-48ca-ba6a-645399aa27e6","title":"Missed Appointment","message":"You missed your 01:59 appointment with Dr. Idi Amin. Please contact us to reschedule.","type":"APPOINTMENT","isRead":false,"data":{"type":"NO_SHOW","appointmentId":"9e7ced8c-d7ea-41b4-ab9e-ec3a7f2d1f01"},"createdAt":"2026-02-04T07:00:00.148Z"},{"id":"6907e264-d50c-44a8-ad61-efc03132550c","userId":"81f9de70-0194-48ca-ba6a-645399aa27e6","title":"New Invoice Generated","message":"A new invoice #INV-ML7MBQCXY5Y has been generated for INR 0.00.","type":"SYSTEM","isRead":true,"data":{"amount":0,"invoiceId":"eb770956-1a71-4ce5-adb3-851412561ceb","billingType":"INVOICE_CREATED","invoiceNumber":"INV-ML7MBQCXY5Y"},"createdAt":"2026-02-04T06:00:01.416Z"},{"id":"57f06050-c0af-47a7-8cba-a8565710c487","userId":"81f9de70-0194-48ca-ba6a-645399aa27e6","title":"Missed Appointment","message":"You missed your 02:00 appointment with Dr. Idi Amin. Please contact us to reschedule.","type":"APPOINTMENT","isRead":false,"data":{"type":"NO_SHOW","appointmentId":"b41dfcaa-a75a-4bb8-b3f9-b2a58db2ab2d"},"createdAt":"2026-02-03T07:00:00.136Z"},{"id":"1754b5a6-702f-42c1-bf93-72ff607e5687","userId":"81f9de70-0194-48ca-ba6a-645399aa27e6","title":"Missed Appointment","message":"You missed your 22:00 appointment with Dr. Idi Amin. Please contact us to reschedule.","type":"APPOINTMENT","isRead":false,"data":{"type":"NO_SHOW","appointmentId":"3c0402b0-1828-4911-b600-2ef462690788"},"createdAt":"2026-02-02T13:39:52.624Z"},{"id":"a7726e0a-5aa9-4f81-b0e0-c528694878aa","userId":"81f9de70-0194-48ca-ba6a-645399aa27e6","title":"Missed Appointment","message":"You missed your 09:30 appointment with Dr. John Smith. Please contact us to reschedule.","type":"APPOINTMENT","isRead":false,"data":{"type":"NO_SHOW","appointmentId":"dc36d1d3-3e54-4ecc-8a6c-292a03064d11"},"createdAt":"2026-02-02T13:39:52.572Z"},{"id":"771b6fa3-c270-4be7-a408-e2dd5139e49f","userId":"81f9de70-0194-48ca-ba6a-645399aa27e6","title":"Missed Appointment","message":"You missed your 09:30 appointment with Dr. Idi Amin. Please contact us to reschedule.","type":"APPOINTMENT","isRead":false,"data":{"type":"NO_SHOW","appointmentId":"22f56c90-c838-4432-ba77-56eec6865d46"},"createdAt":"2026-02-02T13:39:52.535Z"},{"id":"76c7f84a-69d3-4e94-9c8b-8a5682d4aede","userId":"81f9de70-0194-48ca-ba6a-645399aa27e6","title":"Missed Appointment","message":"You missed your 09:00 appointment with Dr. John Smith. Please contact us to reschedule.","type":"APPOINTMENT","isRead":false,"data":{"type":"NO_SHOW","appointmentId":"6f1163d3-fae9-46fe-a89f-13c65258bdb2"},"createdAt":"2026-02-02T13:39:52.440Z"},{"id":"653a314d-9b52-4b62-9412-8b1e85edd415","userId":"81f9de70-0194-48ca-ba6a-645399aa27e6","title":"Missed Appointment","message":"You missed your 10:00 appointment with Dr. John Smith. Please contact us to reschedule.","type":"APPOINTMENT","isRead":false,"data":{"type":"NO_SHOW","appointmentId":"892460ae-eda0-41df-82ee-40fe2079c2a3"},"createdAt":"2026-02-02T13:39:52.304Z"}],"pagination":{"page":1,"limit":10,"total":25,"totalPages":3,"hasNext":true,"hasPrev":false},"unreadCount":24}}